{
    "title": {
        "value": "Менеджер машин"
    },
    "cars": [
        {
            "name": "Audi",
            "color": "grey",
            "id": 2
        },
        {
            "name": "BMW",
            "color": "pink",
            "id": 3
        },
        {
            "name": "Ford",
            "color": "red",
            "id": 5
        }
    ]
}
